social_exclusion_pilot
…
Gini for groups

treatment %>% 
  group_by(id_group_beneficiary) %>%
  mutate(gini = Gini(payoff_beneficiary))

## # A tibble: 199 x 26
## # Groups:   id_group_beneficiary [52]
##    participant.code participant.lab payoff_benefici id_group_benefi payoff_dg
##    <chr>            <chr>                       <dbl>            <dbl>     <dbl>
##  1 1psi9n3s         60b8049314bc2fd               10                2         5
##  2 q3vvrggo         6111491847bcab7               14                3         5
##  3 00pvomse         611d9d95f772274               10                2         5
##  4 k4ijpaz2         60fe0ff2978d9de                9                2         5
##  5 wqiotvd0         61132db9c12a158               10                2         5
##  6 qsnw5xbp         5ac68ddbe734400                6                3         5
##  7 4f2j4znn         60958a92d8da9c1                6                3         5
##  8 a6tv4yc9         6100532c7908d47               10                4         5
##  9 haot0ifr         61525251bee5088               10                4         5
## 10 garvooob         60de49ea4a74923               10                5         6
## #  with 189 more rows, and 21 more variables: role_dg <dbl>, send_proxy <dbl>,
## #   group_sent <dbl>, exclusion <dbl>, inclusion <dbl>, own_team <lgl>,
## #   other_team <lgl>, fair <dbl>, fair_benef <dbl>, fair_benef_own <dbl>,
## #   fair_benef_other <dbl>, rejected <dbl>, happy <dbl>, well_being <dbl>,
## #   easy <dbl>, comments <chr>, age <dbl>, gender <chr>, edu <chr>,
## #   condition <chr>, gini <dbl>
…
